%YAML 1.1
%TAG !u! tag:unity3d.com,2011:
--- !u!114 &11400000
MonoBehaviour:
  m_ObjectHideFlags: 0
  m_CorrespondingSourceObject: {fileID: 0}
  m_PrefabInstance: {fileID: 0}
  m_PrefabAsset: {fileID: 0}
  m_GameObject: {fileID: 0}
  m_Enabled: 1
  m_EditorHideFlags: 0
  m_Script: {fileID: 11500000, guid: dbc6b5fc0ed71ae43be47bd811ac2d28, type: 3}
  m_Name: Unit 2
  m_EditorClassIdentifier: 
  Name: Unit 2
  StarsToUnlock: 0
  ReqScores: 32000000460000005a000000
  Words:
  - OriginalWord: Eleven
    Translation: 11
  - OriginalWord: Fast
    Translation: "\u0411\u044B\u0441\u0442\u0440\u043E"
  - OriginalWord: Fourteen
    Translation: 14
  - OriginalWord: Girl
    Translation: "\u0414\u0435\u0432\u043E\u0447\u043A\u0430"
  - OriginalWord: Nineteen
    Translation: 19
  - OriginalWord: Sixteen
    Translation: 16
  - OriginalWord: Slowly
    Translation: "\u041C\u0435\u0434\u043B\u0435\u043D\u043D\u043E"
  - OriginalWord: Twelve
    Translation: 12
  - OriginalWord: Twenty
    Translation: 20
  - OriginalWord: Watch TV
    Translation: "\u0421\u043C\u043E\u0442\u0440\u0435\u0442\u044C \u0442\u0435\u043B\u0435\u0432\u0438\u0437\u043E\u0440"
