%YAML 1.1
%TAG !u! tag:unity3d.com,2011:
--- !u!114 &11400000
MonoBehaviour:
  m_ObjectHideFlags: 0
  m_CorrespondingSourceObject: {fileID: 0}
  m_PrefabInstance: {fileID: 0}
  m_PrefabAsset: {fileID: 0}
  m_GameObject: {fileID: 0}
  m_Enabled: 1
  m_EditorHideFlags: 0
  m_Script: {fileID: 11500000, guid: dbc6b5fc0ed71ae43be47bd811ac2d28, type: 3}
  m_Name: Unit 6
  m_EditorClassIdentifier: 
  Name: Unit 6
  StarsToUnlock: 8
  ReqScores: 32000000460000005a000000
  Words:
  - OriginalWord: Blouse
    Translation: "\u0411\u043B\u0443\u0437\u043A\u0430"
  - OriginalWord: Cap
    Translation: "\u0428\u0430\u043F\u043E\u0447\u043A\u0430"
  - OriginalWord: Castle
    Translation: "\u0417\u0430\u043C\u043E\u043A"
  - OriginalWord: Cold
    Translation: "\u0425\u043E\u043B\u043E\u0434\u043D\u043E"
  - OriginalWord: Dragon
    Translation: "\u0414\u0440\u0430\u043A\u043E\u043D"
  - OriginalWord: Dress
    Translation: "\u041F\u043B\u0430\u0442\u044C\u0435"
  - OriginalWord: Frightening
    Translation: "\u041F\u0443\u0433\u0430\u044E\u0449\u0438\u0439"
  - OriginalWord: Jacket
    Translation: "\u041A\u0443\u0440\u0442\u043A\u0430"
  - OriginalWord: Jeans
    Translation: "\u0414\u0436\u0438\u043D\u0441\u044B"
  - OriginalWord: Prince
    Translation: "\u041F\u0440\u0438\u043D\u0446"
  - OriginalWord: Princess
    Translation: "\u041F\u0440\u0438\u043D\u0446\u0435\u0441\u0441\u0430"
  - OriginalWord: Rucksack
    Translation: "\u0420\u044E\u043A\u0437\u0430\u043A"
  - OriginalWord: Shoes
    Translation: "\u0422\u0443\u0444\u043B\u0438"
  - OriginalWord: Shorts
    Translation: "\u0428\u043E\u0440\u0442\u044B"
  - OriginalWord: Sweater
    Translation: "\u0421\u0432\u0438\u0442\u0435\u0440"
  - OriginalWord: Trainers
    Translation: "\u041A\u0440\u043E\u0441\u0441\u043E\u0432\u043A\u0438"
  - OriginalWord: Trousers
    Translation: "\u0411\u0440\u044E\u043A\u0438"
  - OriginalWord: T-shirt
    Translation: "\u0424\u0443\u0442\u0431\u043E\u043B\u043A\u0430"
  - OriginalWord: Wear
    Translation: "\u041D\u043E\u0441\u0438\u0442\u044C"
  - OriginalWord: I`d like to be a robot
    Translation: "\u041C\u043D\u0435 \u0445\u043E\u0442\u0435\u043B\u043E\u0441\u044C
      \u0431\u044B \u0431\u044B\u0442\u044C \u0440\u043E\u0431\u043E\u0442\u043E\u043C"
  - OriginalWord: It`s hot
    Translation: "\u0416\u0430\u0440\u043A\u043E"
  - OriginalWord: She looks fantastic!
    Translation: "\u041E\u043D\u0430 \u0432\u044B\u0433\u043B\u044F\u0434\u0438\u0442
      \u0432\u0435\u043B\u0438\u043A\u043E\u043B\u0435\u043F\u043D\u043E"
  - OriginalWord: Would you like to be a robot?
    Translation: "\u0422\u044B \u0431\u044B \u0445\u043E\u0442\u0435\u043B \u0441\u0442\u0430\u0442\u044C
      \u0440\u043E\u0431\u043E\u0442\u043E\u043C?"
  - OriginalWord: You`d better wear your shorts
    Translation: "\u0422\u0435\u0431\u0435 \u0431\u044B \u043B\u0443\u0447\u0448\u0435
      \u043D\u0430\u0434\u0435\u0442\u044C \u0448\u043E\u0440\u0442\u044B"
